DATA202/DATA472 Assignment 3
…
vehicles.color = filter(vehicles, vehicles$BASIC_COLOUR %in% c("GREY","BLUE")) 
vehicles.color.german = filter(vehicles.color, vehicles.color$ORIGINAL_COUNTRY =="GERMANY") 
vehicles.color.german.2007 = filter(vehicles.color.german, FIRST_NZ_REGISTRATION_YEAR < 2007)
result = nrow(vehicles.color.german.2007)
result

## [1] 18

Produce a table summarising all the different Mazda models in the dataset with gross vehicle mass that is greater than 0. Give the model name, mean gross vehicle mass, and the earliest and latest vehicle year for each model. [5 marks]

vehicles.mazda.grossMass = filter(vehicles, vehicles$MAKE =="MAZDA", vehicles$GROSS_VEHICLE_MASS >0)
vehicles.mazda.grossMass.model = group_by(vehicles.mazda.grossMass, vehicles.mazda.grossMass$MODEL)
summarise(vehicles.mazda.grossMass.model, Mean_gross_mass = mean(GROSS_VEHICLE_MASS), earliest= min(VEHICLE_YEAR), latest=max(VEHICLE_YEAR))

## # A tibble: 21 x 4
##    `vehicles.mazda.grossMass$MODEL` Mean_gross_mass earliest latest
##    <chr>                                      <dbl>    <int>  <int>
##  1 626                                        1904      2001   2001
##  2 ATENZA                                     1667.     2002   2007
##  3 AXELA                                      1531.     2003   2008
##  4 BONGO                                      2250      2001   2003
##  5 BOUNTY                                     2868      2005   2006
##  6 BT-50                                      3047.     2008   2013
##  7 CAPELLA                                    1602.     1999   2000
##  8 CX-5                                       2134      2012   2012
##  9 CX7                                        2155.     2007   2011
## 10 CX9                                        2661      2012   2012
## #  with 11 more rows
…
Go back to the reduced dataset of items measured in mililitres (produced in part (a)). Reduce it to just the 2012 data. [1 mark]

fp.2012 = filter(food_prices.reduced, Year==2012)
fp.2012

## # A tibble: 72 x 7
##    Item.ID     Data_value Units   Item              Year Month_num Month   
##    <chr>            <dbl> <chr>   <chr>            <int>     <int> <chr>   
##  1 CPIM.SAP01       2.05 Dollars Bottled water,   2012         1 January 
##  2 CPIM.SAP01       2.17 Dollars Bottled water,   2012         2 February
##  3 CPIM.SAP01       2.13 Dollars Bottled water,   2012         3 March   
##  4 CPIM.SAP01       2.06 Dollars Bottled water,   2012         4 April   
##  5 CPIM.SAP01       2.12 Dollars Bottled water,   2012         5 May     
##  6 CPIM.SAP01       2.11 Dollars Bottled water,   2012         6 June    
##  7 CPIM.SAP01       2.19 Dollars Bottled water,   2012         7 July    
##  8 CPIM.SAP01       2.16 Dollars Bottled water,   2012         8 August  
##  9 CPIM.SAP01       2.16 Dollars Bottled water,   2012         9 Septemb
## 10 CPIM.SAP01       2.21 Dollars Bottled water,   2012        10 October 
## #  with 62 more rows
…
